%YAML 1.1
%TAG !u! tag:unity3d.com,2011:
--- !u!114 &11400000
MonoBehaviour:
  m_ObjectHideFlags: 0
  m_CorrespondingSourceObject: {fileID: 0}
  m_PrefabInstance: {fileID: 0}
  m_PrefabAsset: {fileID: 0}
  m_GameObject: {fileID: 0}
  m_Enabled: 1
  m_EditorHideFlags: 0
  m_Script: {fileID: 11500000, guid: bbb281ee3bf0b054c82ac2347e9e782c, type: 3}
  m_Name: LocalCharacter
  m_EditorClassIdentifier: 
  m_GroupName: LocalCharacter
  m_Data:
    m_SerializedData: []
  m_GUID: a13cb210c03314ff59e0a0b33786c0ef
  m_SerializeEntries:
  - m_GUID: 5dea778f58abd48dca9f12770146c713
    m_Address: Char_1
    m_ReadOnly: 0
    m_SerializedLabels: []
  - m_GUID: 508fbd92ee8464bd5858202b2bcb79d4
    m_Address: Char_2
    m_ReadOnly: 0
    m_SerializedLabels: []
  m_ReadOnly: 0
  m_Settings: {fileID: 11400000, guid: bdf75b2a94e364018af23bb64d01406c, type: 2}
  m_SchemaSet:
    m_Schemas:
    - {fileID: 11400000, guid: 48fd06baff59d4f719da1918e4041fcb, type: 2}
    - {fileID: 11400000, guid: b8cc1d68051e943f2a6a400b92beb4a1, type: 2}
