%YAML 1.1
%TAG !u! tag:unity3d.com,2011:
--- !u!114 &11400000
MonoBehaviour:
  m_ObjectHideFlags: 0
  m_CorrespondingSourceObject: {fileID: 0}
  m_PrefabInstance: {fileID: 0}
  m_PrefabAsset: {fileID: 0}
  m_GameObject: {fileID: 0}
  m_Enabled: 1
  m_EditorHideFlags: 0
  m_Script: {fileID: 11500000, guid: bbb281ee3bf0b054c82ac2347e9e782c, type: 3}
  m_Name: ServerMods
  m_EditorClassIdentifier: 
  m_GroupName: ServerMods
  m_Data:
    m_SerializedData: []
  m_GUID: cae6880cff55d46fb91abad6a79e7c5b
  m_SerializeEntries:
  - m_GUID: e472a5ce7fc8443a99c35eb44227357a
    m_Address: Mods_4
    m_ReadOnly: 0
    m_SerializedLabels: []
  - m_GUID: 6c928cd4162834e3eba72613375c9812
    m_Address: Mods_5
    m_ReadOnly: 0
    m_SerializedLabels: []
  - m_GUID: faace074958bd44f9aa0f5aa7a8e7d5e
    m_Address: Mods_6
    m_ReadOnly: 0
    m_SerializedLabels: []
  - m_GUID: 5d1adfe9604164f1d869fb2016bb3910
    m_Address: Mods_7
    m_ReadOnly: 0
    m_SerializedLabels: []
  - m_GUID: 3382f853986434577ba776de6f59af3f
    m_Address: Mods_8
    m_ReadOnly: 0
    m_SerializedLabels: []
  m_ReadOnly: 0
  m_Settings: {fileID: 11400000, guid: bdf75b2a94e364018af23bb64d01406c, type: 2}
  m_SchemaSet:
    m_Schemas:
    - {fileID: 11400000, guid: 84b191d443350462bae58687ba20d83f, type: 2}
    - {fileID: 11400000, guid: eeaef7f40971a498aa277242426569cb, type: 2}
