%YAML 1.1
%TAG !u! tag:unity3d.com,2011:
--- !u!114 &11400000
MonoBehaviour:
  m_ObjectHideFlags: 0
  m_CorrespondingSourceObject: {fileID: 0}
  m_PrefabInstance: {fileID: 0}
  m_PrefabAsset: {fileID: 0}
  m_GameObject: {fileID: 0}
  m_Enabled: 1
  m_EditorHideFlags: 0
  m_Script: {fileID: 11500000, guid: bbb281ee3bf0b054c82ac2347e9e782c, type: 3}
  m_Name: ServerScriptableData
  m_EditorClassIdentifier: 
  m_GroupName: ServerScriptableData
  m_Data:
    m_SerializedData: []
  m_GUID: 339ec4c34b9044886b4d6863e9379f0c
  m_SerializeEntries:
  - m_GUID: ad9d6b6be516e4d1b86ebf7ded557cba
    m_Address: BGData
    m_ReadOnly: 0
    m_SerializedLabels: []
  - m_GUID: ba0d1fee6a40e43a5b3a236d02722b31
    m_Address: VapeDataStr
    m_ReadOnly: 0
    m_SerializedLabels: []
  m_ReadOnly: 0
  m_Settings: {fileID: 11400000, guid: bdf75b2a94e364018af23bb64d01406c, type: 2}
  m_SchemaSet:
    m_Schemas:
    - {fileID: 11400000, guid: 653e6e3e835d7407987f8b3830e74012, type: 2}
    - {fileID: 11400000, guid: 827475ee44dac49d7952ce3366d62d31, type: 2}
