%YAML 1.1
%TAG !u! tag:unity3d.com,2011:
--- !u!114 &11400000
MonoBehaviour:
  m_ObjectHideFlags: 0
  m_CorrespondingSourceObject: {fileID: 0}
  m_PrefabInstance: {fileID: 0}
  m_PrefabAsset: {fileID: 0}
  m_GameObject: {fileID: 0}
  m_Enabled: 1
  m_EditorHideFlags: 0
  m_Script: {fileID: 11500000, guid: bbb281ee3bf0b054c82ac2347e9e782c, type: 3}
  m_Name: ServerBG
  m_EditorClassIdentifier: 
  m_GroupName: ServerBG
  m_Data:
    m_SerializedData: []
  m_GUID: bf2f82851d0154a4e9e72efd2adf0f54
  m_SerializeEntries:
  - m_GUID: 0fa153beec5004a56a86bc98594d7774
    m_Address: Background_4
    m_ReadOnly: 0
    m_SerializedLabels:
    - ServerBG
  - m_GUID: 15d0d8317ac674a628117b3dcf3235d9
    m_Address: Background_5
    m_ReadOnly: 0
    m_SerializedLabels:
    - ServerBG
  - m_GUID: c61127649440241e3980809083b099f8
    m_Address: Background_6
    m_ReadOnly: 0
    m_SerializedLabels:
    - ServerBG
  - m_GUID: 2f3c5a4c767f54dcbbcf0557627e297a
    m_Address: Background_7
    m_ReadOnly: 0
    m_SerializedLabels:
    - ServerBG
  - m_GUID: 9a9f196296ccc4e9cb9c21f86b567cbc
    m_Address: Background_8
    m_ReadOnly: 0
    m_SerializedLabels:
    - ServerBG
  - m_GUID: 598ff41d360a341b694513f4dbac3abc
    m_Address: Background_9
    m_ReadOnly: 0
    m_SerializedLabels:
    - ServerBG
  - m_GUID: e00a5bd58c30946f48d842cdd1252fa4
    m_Address: Background_11
    m_ReadOnly: 0
    m_SerializedLabels:
    - ServerBG
  - m_GUID: fd917a72ca4d7432f89da1e7fd109fd0
    m_Address: Background_12
    m_ReadOnly: 0
    m_SerializedLabels:
    - ServerBG
  - m_GUID: aee60c357d190435fb526fced2182514
    m_Address: Background_13
    m_ReadOnly: 0
    m_SerializedLabels:
    - ServerBG
  - m_GUID: 6ee17e01325d24ed8a0d525ed494c384
    m_Address: Background_14
    m_ReadOnly: 0
    m_SerializedLabels:
    - ServerBG
  - m_GUID: d2da7c5dd42a24d098cef038b2def306
    m_Address: Background_15
    m_ReadOnly: 0
    m_SerializedLabels:
    - ServerBG
  - m_GUID: 376a847367ac34a0d924f29fe5cb0fee
    m_Address: Background_16
    m_ReadOnly: 0
    m_SerializedLabels:
    - ServerBG
  - m_GUID: 1a472fa7a77a5469e91d15ba639a6fd5
    m_Address: Background_17
    m_ReadOnly: 0
    m_SerializedLabels:
    - ServerBG
  - m_GUID: 8ca3e8ccbdbb74bb2a7a8e42f1fed48b
    m_Address: Background_18
    m_ReadOnly: 0
    m_SerializedLabels:
    - ServerBG
  - m_GUID: 3acee8f27947641a498d45c486a03fd2
    m_Address: Background_19
    m_ReadOnly: 0
    m_SerializedLabels:
    - ServerBG
  - m_GUID: 47fbed1f1964244d7a274177a19b0efd
    m_Address: Background_10
    m_ReadOnly: 0
    m_SerializedLabels:
    - ServerBG
  m_ReadOnly: 0
  m_Settings: {fileID: 11400000, guid: bdf75b2a94e364018af23bb64d01406c, type: 2}
  m_SchemaSet:
    m_Schemas:
    - {fileID: 11400000, guid: c68bc524663044db0b615a1cc75b0561, type: 2}
    - {fileID: 11400000, guid: e5883dd6c098b4b0db3091d4489f4cb1, type: 2}
