﻿Backup Table
6
Game
Anime Girl
26
2023
11
1
Game
Anime girl 3
6
2023
11
2
Game
Backup_Anime girl 4__20231017_12_46
5
2023
11
1
Game
Anime girl 2
2
2023
11
2
Game
Anime girl 1
1
2023
11
2
Game
Anime girl 4
3
2023
11
2
