%YAML 1.1
%TAG !u! tag:unity3d.com,2011:
--- !u!114 &11400000
MonoBehaviour:
  m_ObjectHideFlags: 0
  m_CorrespondingSourceObject: {fileID: 0}
  m_PrefabInstance: {fileID: 0}
  m_PrefabAsset: {fileID: 0}
  m_GameObject: {fileID: 0}
  m_Enabled: 1
  m_EditorHideFlags: 0
  m_Script: {fileID: 11500000, guid: 468a46d0ae32c3544b7d98094e6448a9, type: 3}
  m_Name: AddressableAssetSettings
  m_EditorClassIdentifier: 
  m_DefaultGroup: ccd87dc32ac7d46b1b4957ee3514e823
  m_CachedHash:
    serializedVersion: 2
    Hash: 00000000000000000000000000000000
  m_OptimizeCatalogSize: 0
  m_BuildRemoteCatalog: 1
  m_BundleLocalCatalog: 0
  m_CatalogRequestsTimeout: 0
  m_DisableCatalogUpdateOnStart: 0
  m_IgnoreUnsupportedFilesInBuild: 0
  m_UniqueBundleIds: 0
  m_NonRecursiveBuilding: 1
  m_CCDEnabled: 1
  m_maxConcurrentWebRequests: 500
  m_ContiguousBundles: 1
  m_StripUnityVersionFromBundleBuild: 0
  m_DisableVisibleSubAssetRepresentations: 0
  m_ShaderBundleNaming: 0
  m_ShaderBundleCustomNaming: 
  m_MonoScriptBundleNaming: 0
  m_MonoScriptBundleCustomNaming: 
  m_RemoteCatalogBuildPath:
    m_Id: 1513c723e4b364ded8ceded8b7c07d5b
  m_RemoteCatalogLoadPath:
    m_Id: ff5798c8328e54474b6f2010e39719f2
  m_ContentStateBuildPath: 
  m_BuildAddressablesWithPlayerBuild: 2
  m_overridePlayerVersion: 
  m_GroupAssets:
  - {fileID: 11400000, guid: bc70ba6c53148403094a2d76ac656f90, type: 2}
  - {fileID: 11400000, guid: 0bfeda35c7dff4b829fd36a392ba481f, type: 2}
  - {fileID: 11400000, guid: 0c01299f38a8e407093665451f9951cb, type: 2}
  - {fileID: 11400000, guid: 0cf5cf37775554c03afc1af4a5056650, type: 2}
  - {fileID: 11400000, guid: ccedc2eff31814efca11908abd0e49c9, type: 2}
  - {fileID: 11400000, guid: 6ed5e41952a49435fbf3f0a696e6e288, type: 2}
  - {fileID: 11400000, guid: fa10413c194624f5589100cf22dd67fd, type: 2}
  - {fileID: 11400000, guid: 7c820b41114cf4a399c30b4a5b37fc11, type: 2}
  - {fileID: 11400000, guid: 353b808cfedaa42ad804032855d83812, type: 2}
  - {fileID: 11400000, guid: abba78a8a3ac142959dc6b7b22a927e6, type: 2}
  - {fileID: 11400000, guid: b8bd6c492db8b4e479339ed1bd2df370, type: 2}
  - {fileID: 11400000, guid: 0fbe6e056c41d43ffa85e5a444943819, type: 2}
  - {fileID: 11400000, guid: 4dcea12f2a1984c2ca1a58cce7323347, type: 2}
  - {fileID: 11400000, guid: dfbd5532ccab3478c9f6998e09cb3553, type: 2}
  - {fileID: 11400000, guid: e881754d7da764f61b79a50f63dcb907, type: 2}
  - {fileID: 11400000, guid: bbf6dbd3d138a4568a7a2965014d783f, type: 2}
  - {fileID: 11400000, guid: 3fb0a440d652e4b9cbfbaed52ef81abc, type: 2}
  - {fileID: 11400000, guid: 90d04ea739eaa4c2c8d219f0c588a73a, type: 2}
  m_BuildSettings:
    m_CompileScriptsInVirtualMode: 0
    m_CleanupStreamingAssetsAfterBuilds: 1
    m_LogResourceManagerExceptions: 1
    m_BundleBuildPath: Temp/com.unity.addressables/AssetBundles
  m_ProfileSettings:
    m_Profiles:
    - m_InheritedParent: 
      m_Id: 3dc7c0ffa1a754a8b8605c1b7471dd55
      m_ProfileName: Default
      m_Values:
      - m_Id: 618bf6d96b16f4de1b85e429503e7076
        m_Value: '[UnityEditor.EditorUserBuildSettings.activeBuildTarget]'
      - m_Id: 4fcb461290b6142cb9ca85ed93e5c23d
        m_Value: '[UnityEngine.AddressableAssets.Addressables.BuildPath]/[BuildTarget]'
      - m_Id: b58e2d55319054a8e9b31dfe324b17e9
        m_Value: '{UnityEngine.AddressableAssets.Addressables.RuntimePath}/[BuildTarget]'
      - m_Id: 1513c723e4b364ded8ceded8b7c07d5b
        m_Value: ServerData/[BuildTarget]
      - m_Id: ff5798c8328e54474b6f2010e39719f2
        m_Value: https://aa1a12a7-5b7c-468a-acb4-41605f79aec8.client-api.unity3dusercontent.com/client_api/v1/environments/production/buckets/c30aec5a-a596-4663-9451-87f494b6cc1c/release_by_badge/latest/entry_by_path/content/?path=
    - m_InheritedParent: 
      m_Id: 3cb0d47e1ff254841a524846eee94d9e
      m_ProfileName: New Profile
      m_Values:
      - m_Id: 618bf6d96b16f4de1b85e429503e7076
        m_Value: '[UnityEditor.EditorUserBuildSettings.activeBuildTarget]'
      - m_Id: 4fcb461290b6142cb9ca85ed93e5c23d
        m_Value: '[UnityEngine.AddressableAssets.Addressables.BuildPath]/[BuildTarget]'
      - m_Id: b58e2d55319054a8e9b31dfe324b17e9
        m_Value: '{UnityEngine.AddressableAssets.Addressables.RuntimePath}/[BuildTarget]'
      - m_Id: 1513c723e4b364ded8ceded8b7c07d5b
        m_Value: CCDBuildData/c30aec5a-a596-4663-9451-87f494b6cc1c/latest
      - m_Id: ff5798c8328e54474b6f2010e39719f2
        m_Value: https://aa1a12a7-5b7c-468a-acb4-41605f79aec8.client-api.unity3dusercontent.com/client_api/v1/buckets/c30aec5a-a596-4663-9451-87f494b6cc1c/release_by_badge/latest/entry_by_path/content/?path=
    m_ProfileEntryNames:
    - m_Id: 618bf6d96b16f4de1b85e429503e7076
      m_Name: BuildTarget
      m_InlineUsage: 0
    - m_Id: 4fcb461290b6142cb9ca85ed93e5c23d
      m_Name: Local.BuildPath
      m_InlineUsage: 0
    - m_Id: b58e2d55319054a8e9b31dfe324b17e9
      m_Name: Local.LoadPath
      m_InlineUsage: 0
    - m_Id: 1513c723e4b364ded8ceded8b7c07d5b
      m_Name: Remote.BuildPath
      m_InlineUsage: 0
    - m_Id: ff5798c8328e54474b6f2010e39719f2
      m_Name: Remote.LoadPath
      m_InlineUsage: 0
    m_ProfileVersion: 1
  m_LabelTable:
    m_LabelNames:
    - default
    - LocalBG
    - ServerBG
  m_SchemaTemplates: []
  m_GroupTemplateObjects:
  - {fileID: 11400000, guid: c2336e84dab684130ab1779f672a7178, type: 2}
  m_InitializationObjects: []
  m_CertificateHandlerType:
    m_AssemblyName: 
    m_ClassName: 
  m_ActivePlayerDataBuilderIndex: 3
  m_DataBuilders:
  - {fileID: 11400000, guid: 60d0ee74e02a543318d8789eecfdffe5, type: 2}
  - {fileID: 11400000, guid: 5a3bae6b9654242c4a77944df19c9d40, type: 2}
  - {fileID: 11400000, guid: 2182af5e3b722443fa80aa175c68a079, type: 2}
  - {fileID: 11400000, guid: 3dbf4b67df5b84a7092d2256a15daa85, type: 2}
  m_ActiveProfileId: 3cb0d47e1ff254841a524846eee94d9e
  m_HostingServicesManager:
    m_HostingServiceInfos: []
    m_Settings: {fileID: 11400000}
    m_NextInstanceId: 0
    m_RegisteredServiceTypeRefs: []
